Window:
{
	Picture: "Picture1"
	{
                Filename = "third-party/TGUI/widgets/background/imakart/rules.png"
                Left = 0
                Top = 0
                Width = 1024
                Height = 768
                Visible = true
                Enabled = true
                Transparency = 255
                CallbackId = 0
                Smooth = false
	}

	Button: "Button1"
	{
        ConfigFile = "third-party/TGUI/widgets/play.conf"
        Left = 20
        Top = 70
        Width = 120
        Height = 60
        Visible = true
        Enabled = true
        Transparency = 255
        Callback = LeftMouseClicked
        CallbackId = 1
        Text = "back"
        TextColor = (255,255,255,255)
        TextSize = 20
	}

}
